//Maya ASCII 2018 scene
//Name: guide_axis.ma
//Last modified: Sat, Jun 25, 2022 05:15:18 PM
//Codeset: 1252
requires maya "2018";
requires -nodeType "ikSpringSolver" "ikSpringSolver" "1.0";
requires "stereoCamera" "10.0";
currentUnit -l centimeter -a degree -t ntsc;
fileInfo "application" "maya";
fileInfo "product" "Maya 2018";
fileInfo "version" "2018";
fileInfo "cutIdentifier" "201706261615-f9658c4cfc";
fileInfo "osv" "Microsoft Windows 8 Business Edition, 64-bit  (Build 9200)\n";
createNode transform -s -n "persp";
	rename -uid "BB47E921-4C60-A244-909E-1DB342BF6310";
	setAttr ".v" no;
	setAttr ".t" -type "double3" 311.42480600079216 134.59371552464594 47.098573738576761 ;
	setAttr ".r" -type "double3" -23.138352729635038 81.399999999999935 1.0634792445107685e-14 ;
createNode camera -s -n "perspShape" -p "persp";
	rename -uid "47FFF848-4ED5-DA90-E84E-5D8904042DCB";
	setAttr -k off ".v" no;
	setAttr ".fl" 34.999999999999993;
	setAttr ".coi" 342.51883699959785;
	setAttr ".imn" -type "string" "persp";
	setAttr ".den" -type "string" "persp_depth";
	setAttr ".man" -type "string" "persp_mask";
	setAttr ".hc" -type "string" "viewSet -p %camera";
createNode transform -s -n "top";
	rename -uid "3C6C681F-4AAC-B2F0-EE09-6DAE8F589C4B";
	setAttr ".v" no;
	setAttr ".t" -type "double3" 0 1000.1 0 ;
	setAttr ".r" -type "double3" -89.999999999999986 0 0 ;
createNode camera -s -n "topShape" -p "top";
	rename -uid "F7366E1D-4131-BFEE-51F6-8A9D730E8A72";
	setAttr -k off ".v" no;
	setAttr ".rnd" no;
	setAttr ".coi" 1000.1;
	setAttr ".ow" 30;
	setAttr ".imn" -type "string" "top";
	setAttr ".den" -type "string" "top_depth";
	setAttr ".man" -type "string" "top_mask";
	setAttr ".hc" -type "string" "viewSet -t %camera";
	setAttr ".o" yes;
createNode transform -s -n "front";
	rename -uid "0FEBF6B9-4667-3B77-AE3A-1EBCD6AB67CF";
	setAttr ".v" no;
	setAttr ".t" -type "double3" -4.8147339218090783 1.5517515305490122 1000.1 ;
createNode camera -s -n "frontShape" -p "front";
	rename -uid "7852AC10-432A-08FC-9D58-229106CE179B";
	setAttr -k off ".v" no;
	setAttr ".rnd" no;
	setAttr ".coi" 1000.1;
	setAttr ".ow" 54.65682393733735;
	setAttr ".imn" -type "string" "front";
	setAttr ".den" -type "string" "front_depth";
	setAttr ".man" -type "string" "front_mask";
	setAttr ".hc" -type "string" "viewSet -f %camera";
	setAttr ".o" yes;
createNode transform -s -n "side";
	rename -uid "8C20C496-4EC9-12D0-61E6-D39518B79F5B";
	setAttr ".v" no;
	setAttr ".t" -type "double3" 1000.1 8.7572983194205385 -1.1744483499313323 ;
	setAttr ".r" -type "double3" 0 89.999999999999986 0 ;
createNode camera -s -n "sideShape" -p "side";
	rename -uid "300EBE30-41CC-2DEB-323C-66BBF7B4AB21";
	setAttr -k off ".v" no;
	setAttr ".rnd" no;
	setAttr ".coi" 1000.1000001192093;
	setAttr ".ow" 44.909876804258687;
	setAttr ".imn" -type "string" "side";
	setAttr ".den" -type "string" "side_depth";
	setAttr ".man" -type "string" "side_mask";
	setAttr ".tp" -type "double3" -1.1920928955078125e-07 0 -1.7881393432617188e-07 ;
	setAttr ".hc" -type "string" "viewSet -s %camera";
	setAttr ".o" yes;
createNode transform -n "axis";
	rename -uid "0699CFE5-4FDA-97BC-06D9-C68A9EAD9699";
createNode mesh -n "axisShape" -p "axis";
	rename -uid "EC3A343B-4456-45A7-AA85-5B91E85B1ABC";
	setAttr -k off ".v";
	setAttr -s 3 ".iog[0].og";
	setAttr ".iog[0].og[0].gcl" -type "componentList" 1 "f[4:85]";
	setAttr ".iog[0].og[1].gcl" -type "componentList" 3 "f[1]" "f[3]" "f[166:245]";
	setAttr ".iog[0].og[2].gcl" -type "componentList" 3 "f[0]" "f[2]" "f[86:165]";
	setAttr ".vir" yes;
	setAttr ".vif" yes;
	setAttr ".uvst[0].uvsn" -type "string" "map1";
	setAttr -s 326 ".uvst[0].uvsp";
	setAttr ".uvst[0].uvsp[0:249]" -type "float2" 0.375 0 0.625 0 0.375 0.25
		 0.625 0.25 0.375 0.5 0.625 0.5 0.375 0.75 0.625 0.75 0.375 1 0.625 1 0.875 0 0.875
		 0.25 0.125 0 0.125 0.25 0.375 0.3125 0.38749999 0.3125 0.38749999 0.68843985 0.375
		 0.68843985 0.39999998 0.3125 0.39999998 0.68843985 0.41249996 0.3125 0.41249996 0.68843985
		 0.42499995 0.3125 0.42499995 0.68843985 0.43749994 0.3125 0.43749994 0.68843985 0.44999993
		 0.3125 0.44999993 0.68843985 0.46249992 0.3125 0.46249992 0.68843985 0.4749999 0.3125
		 0.4749999 0.68843985 0.48749989 0.3125 0.48749989 0.68843985 0.49999988 0.3125 0.49999988
		 0.68843985 0.51249987 0.3125 0.51249987 0.68843985 0.52499986 0.3125 0.52499986 0.68843985
		 0.53749985 0.3125 0.53749985 0.68843985 0.54999983 0.3125 0.54999983 0.68843985 0.56249982
		 0.3125 0.56249982 0.68843985 0.57499981 0.3125 0.57499981 0.68843985 0.5874998 0.3125
		 0.5874998 0.68843985 0.59999979 0.3125 0.59999979 0.68843985 0.61249977 0.3125 0.61249977
		 0.68843985 0.62499976 0.3125 0.62499976 0.68843985 0.62640899 0.064408496 0.64860266
		 0.10796607 0.5 0.15000001 0.59184152 0.029841021 0.54828393 0.0076473355 0.5 -7.4505806e-08
		 0.45171607 0.0076473504 0.40815851 0.029841051 0.37359107 0.064408526 0.3513974 0.1079661
		 0.34374997 0.15625 0.3513974 0.2045339 0.37359107 0.24809146 0.40815854 0.28265893
		 0.4517161 0.3048526 0.5 0.3125 0.54828387 0.3048526 0.59184146 0.28265893 0.62640893
		 0.24809146 0.6486026 0.2045339 0.65625 0.15625 0.6486026 0.89203393 0.62640893 0.93559146
		 0.62640893 0.93559146 0.6486026 0.89203393 0.59184146 0.97015893 0.59184146 0.97015893
		 0.54828387 0.9923526 0.54828387 0.9923526 0.5 1 0.5 1 0.4517161 0.9923526 0.4517161
		 0.9923526 0.40815854 0.97015893 0.40815854 0.97015893 0.37359107 0.93559146 0.37359107
		 0.93559146 0.3513974 0.89203393 0.3513974 0.89203393 0.34374997 0.84375 0.34374997
		 0.84375 0.3513974 0.79546607 0.3513974 0.79546607 0.37359107 0.75190854 0.37359107
		 0.75190854 0.40815851 0.71734107 0.40815851 0.71734107 0.45171607 0.69514734 0.45171607
		 0.69514734 0.5 0.68749994 0.5 0.68749994 0.54828393 0.69514734 0.54828393 0.69514734
		 0.59184152 0.71734101 0.59184152 0.71734101 0.62640899 0.75190848 0.62640899 0.75190848
		 0.64860266 0.79546607 0.64860266 0.79546607 0.65625 0.84375 0.65625 0.84375 0.49999994
		 0.84345233 0.375 0.3125 0.38749999 0.3125 0.38749999 0.68843985 0.375 0.68843985
		 0.39999998 0.3125 0.39999998 0.68843985 0.41249996 0.3125 0.41249996 0.68843985 0.42499995
		 0.3125 0.42499995 0.68843985 0.43749994 0.3125 0.43749994 0.68843985 0.44999993 0.3125
		 0.44999993 0.68843985 0.46249992 0.3125 0.46249992 0.68843985 0.4749999 0.3125 0.4749999
		 0.68843985 0.48749989 0.3125 0.48749989 0.68843985 0.49999988 0.3125 0.49999988 0.68843985
		 0.51249987 0.3125 0.51249987 0.68843985 0.52499986 0.3125 0.52499986 0.68843985 0.53749985
		 0.3125 0.53749985 0.68843985 0.54999983 0.3125 0.54999983 0.68843985 0.56249982 0.3125
		 0.56249982 0.68843985 0.57499981 0.3125 0.57499981 0.68843985 0.5874998 0.3125 0.5874998
		 0.68843985 0.59999979 0.3125 0.59999979 0.68843985 0.61249977 0.3125 0.61249977 0.68843985
		 0.62499976 0.3125 0.62499976 0.68843985 0.62640899 0.064408496 0.64860266 0.10796607
		 0.5 0.15000001 0.59184152 0.029841021 0.54828393 0.0076473355 0.5 -7.4505806e-08
		 0.45171607 0.0076473504 0.40815851 0.029841051 0.37359107 0.064408526 0.3513974 0.1079661
		 0.34374997 0.15625 0.3513974 0.2045339 0.37359107 0.24809146 0.40815854 0.28265893
		 0.4517161 0.3048526 0.5 0.3125 0.54828387 0.3048526 0.59184146 0.28265893 0.62640893
		 0.24809146 0.6486026 0.2045339 0.65625 0.15625 0.6486026 0.89203393 0.62640893 0.93559146
		 0.62640893 0.93559146 0.6486026 0.89203393 0.59184146 0.97015893 0.59184146 0.97015893
		 0.54828387 0.9923526 0.54828387 0.9923526 0.5 1 0.5 1 0.4517161 0.9923526 0.4517161
		 0.9923526 0.40815854 0.97015893 0.40815854 0.97015893 0.37359107 0.93559146 0.37359107
		 0.93559146 0.3513974 0.89203393 0.3513974 0.89203393 0.34374997 0.84375 0.34374997
		 0.84375 0.3513974 0.79546607 0.3513974 0.79546607 0.37359107 0.75190854 0.37359107
		 0.75190854 0.40815851 0.71734107 0.40815851 0.71734107 0.45171607 0.69514734 0.45171607
		 0.69514734 0.5 0.68749994 0.5 0.68749994 0.54828393 0.69514734 0.54828393 0.69514734
		 0.59184152 0.71734101 0.59184152 0.71734101 0.62640899 0.75190848 0.62640899 0.75190848
		 0.64860266 0.79546607 0.64860266 0.79546607 0.65625 0.84375 0.65625 0.84375 0.49999994
		 0.84345233 0.375 0.3125 0.38749999 0.3125 0.38749999 0.68843985 0.375 0.68843985
		 0.39999998 0.3125 0.39999998 0.68843985 0.41249996 0.3125 0.41249996 0.68843985 0.42499995
		 0.3125 0.42499995 0.68843985 0.43749994 0.3125 0.43749994 0.68843985 0.44999993 0.3125
		 0.44999993 0.68843985 0.46249992 0.3125 0.46249992 0.68843985 0.4749999 0.3125 0.4749999
		 0.68843985 0.48749989 0.3125 0.48749989 0.68843985 0.49999988 0.3125 0.49999988 0.68843985
		 0.51249987 0.3125 0.51249987 0.68843985 0.52499986 0.3125 0.52499986 0.68843985 0.53749985
		 0.3125 0.53749985 0.68843985;
	setAttr ".uvst[0].uvsp[250:325]" 0.54999983 0.3125 0.54999983 0.68843985 0.56249982
		 0.3125 0.56249982 0.68843985 0.57499981 0.3125 0.57499981 0.68843985 0.5874998 0.3125
		 0.5874998 0.68843985 0.59999979 0.3125 0.59999979 0.68843985 0.61249977 0.3125 0.61249977
		 0.68843985 0.62499976 0.3125 0.62499976 0.68843985 0.62640899 0.064408496 0.64860266
		 0.10796607 0.5 0.15000001 0.59184152 0.029841021 0.54828393 0.0076473355 0.5 -7.4505806e-08
		 0.45171607 0.0076473504 0.40815851 0.029841051 0.37359107 0.064408526 0.3513974 0.1079661
		 0.34374997 0.15625 0.3513974 0.2045339 0.37359107 0.24809146 0.40815854 0.28265893
		 0.4517161 0.3048526 0.5 0.3125 0.54828387 0.3048526 0.59184146 0.28265893 0.62640893
		 0.24809146 0.6486026 0.2045339 0.65625 0.15625 0.6486026 0.89203393 0.62640893 0.93559146
		 0.62640893 0.93559146 0.6486026 0.89203393 0.59184146 0.97015893 0.59184146 0.97015893
		 0.54828387 0.9923526 0.54828387 0.9923526 0.5 1 0.5 1 0.4517161 0.9923526 0.4517161
		 0.9923526 0.40815854 0.97015893 0.40815854 0.97015893 0.37359107 0.93559146 0.37359107
		 0.93559146 0.3513974 0.89203393 0.3513974 0.89203393 0.34374997 0.84375 0.34374997
		 0.84375 0.3513974 0.79546607 0.3513974 0.79546607 0.37359107 0.75190854 0.37359107
		 0.75190854 0.40815851 0.71734107 0.40815851 0.71734107 0.45171607 0.69514734 0.45171607
		 0.69514734 0.5 0.68749994 0.5 0.68749994 0.54828393 0.69514734 0.54828393 0.69514734
		 0.59184152 0.71734101 0.59184152 0.71734101 0.62640899 0.75190848 0.62640899 0.75190848
		 0.64860266 0.79546607 0.64860266 0.79546607 0.65625 0.84375 0.65625 0.84375 0.49999994
		 0.84345233;
	setAttr ".cuvs" -type "string" "map1";
	setAttr ".dcc" -type "string" "Ambient+Diffuse";
	setAttr ".covm[0]"  0 1 1;
	setAttr ".cdvm[0]"  0 1 1;
	setAttr -s 194 ".vt";
	setAttr ".vt[0:165]"  -2.5 -2.5 2.5 2.5 -2.5 2.5 -2.5 2.5 2.5 2.5 2.5 2.5
		 -2.5 2.5 -2.5 2.5 2.5 -2.5 -2.5 -2.5 -2.5 2.5 -2.5 -2.5 2.7766051e-15 0.309017 -0.95105726
		 3.9491488e-15 0.58778542 -0.80901766 4.7351221e-15 0.8090173 -0.58778572 5.0575884e-15 0.95105684 -0.30901727
		 4.8849826e-15 1.000000238419 -1.1920929e-07 4.2342008e-15 0.95105678 0.30901703 3.1689459e-15 0.80901712 0.58778536
		 1.7934927e-15 0.58778524 0.80901712 2.424797e-16 0.30901688 0.95105666 -1.3322687e-15 -1.7881393e-07 1.000000119209
		 -2.7766053e-15 -0.30901724 0.95105666 -3.9491488e-15 -0.58778554 0.80901706 -4.7351217e-15 -0.8090173 0.58778524
		 -5.057588e-15 -0.95105684 0.30901694 -4.8849826e-15 -1.000000238419 -8.9406967e-08
		 -4.2342008e-15 -0.95105678 -0.30901709 -3.1689468e-15 -0.80901724 -0.58778536 -1.7934936e-15 -0.58778548 -0.80901712
		 -2.4248118e-16 -0.30901718 -0.95105666 1.332267e-15 -1.7881393e-07 -1.000000119209
		 20 0.309017 -0.95105726 20 0.58778542 -0.80901766 20 0.8090173 -0.58778572 20 0.95105684 -0.30901727
		 20 1.000000238419 -1.1920926e-07 20 0.95105678 0.30901703 20 0.80901712 0.58778536
		 20 0.58778524 0.80901712 20 0.30901688 0.95105666 20 -1.7881403e-07 1.000000119209
		 20 -0.30901724 0.95105666 20 -0.58778554 0.80901706 20 -0.8090173 0.58778524 20 -0.95105684 0.30901694
		 20 -1.000000238419 -8.9406939e-08 20 -0.95105678 -0.30901709 20 -0.80901724 -0.58778536
		 20 -0.58778548 -0.80901712 20 -0.30901718 -0.95105666 20 -1.7881403e-07 -1.000000119209
		 -7.1468405e-22 -1.7881393e-07 -1.1920929e-07 20.035413742 0.87316006 -2.68731141
		 20.035413742 1.66084933 -2.28596401 20.035413742 2.28596306 -1.66085029 20.035413742 2.6873107 -0.8731606
		 20.035413742 2.82560587 -3.3683827e-07 20.035413742 2.6873107 0.87316012 20.035413742 2.28596234 1.66084921
		 20.035413742 1.66084802 2.28596234 20.035413742 0.87315983 2.68731046 20.035413742 -5.0525762e-07 2.82560444
		 20.035413742 -0.87316054 2.68731046 20.035413742 -1.66084957 2.2859621 20.035413742 -2.28596306 1.66084802
		 20.035413742 -2.6873107 0.87315995 20.035413742 -2.82560587 -2.5262872e-07 20.035413742 -2.6873107 -0.87316024
		 20.035413742 -2.28596282 -1.66084921 20.035413742 -1.66084945 -2.28596234 20.035413742 -0.87316048 -2.68731046
		 20.035413742 -5.0525762e-07 -2.82560444 29 -1.7556685e-08 -3.5372754e-08 0.95105726 0.309017 1.3723112e-16
		 0.80901766 0.58778542 2.6102916e-16 0.58778572 0.8090173 3.5927585e-16 0.30901727 0.95105684 4.2235408e-16
		 1.1920929e-07 1.000000238419 4.4408932e-16 -0.30901703 0.95105678 4.2235405e-16 -0.58778536 0.80901712 3.5927577e-16
		 -0.80901712 0.58778524 2.6102908e-16 -0.95105666 0.30901688 1.3723106e-16 -1.000000119209 -1.7881393e-07 -7.9409339e-23
		 -0.95105666 -0.30901724 -1.3723122e-16 -0.80901706 -0.58778554 -2.6102922e-16 -0.58778524 -0.8090173 -3.5927585e-16
		 -0.30901694 -0.95105684 -4.2235408e-16 8.9406967e-08 -1.000000238419 -4.4408932e-16
		 0.30901709 -0.95105678 -4.2235405e-16 0.58778536 -0.80901724 -3.5927583e-16 0.80901712 -0.58778548 -2.6102919e-16
		 0.95105666 -0.30901718 -1.372312e-16 1.000000119209 -1.7881393e-07 -7.9409339e-23
		 0.95105726 0.309017 20 0.80901766 0.58778542 20 0.58778572 0.8090173 20 0.30901727 0.95105684 20
		 1.1920929e-07 1.000000238419 20 -0.30901703 0.95105678 20 -0.58778536 0.80901712 20
		 -0.80901712 0.58778524 20 -0.95105666 0.30901688 20 -1.000000119209 -1.7881395e-07 20
		 -0.95105666 -0.30901724 20 -0.80901706 -0.58778554 20 -0.58778524 -0.8090173 20 -0.30901694 -0.95105684 20
		 8.9406967e-08 -1.000000238419 20 0.30901709 -0.95105678 20 0.58778536 -0.80901724 20
		 0.80901712 -0.58778548 20 0.95105666 -0.30901718 20 1.000000119209 -1.7881395e-07 20
		 1.1920929e-07 -1.7881393e-07 -7.9409339e-23 2.68731141 0.87316006 20.035413742 2.28596401 1.66084933 20.035413742
		 1.66085029 2.28596306 20.035413742 0.8731606 2.6873107 20.035413742 3.368383e-07 2.82560587 20.035413742
		 -0.87316012 2.6873107 20.035413742 -1.66084921 2.28596234 20.035413742 -2.28596234 1.66084802 20.035413742
		 -2.68731046 0.87315983 20.035413742 -2.82560444 -5.052575e-07 20.035413742 -2.68731046 -0.87316054 20.035413742
		 -2.2859621 -1.66084957 20.035413742 -1.66084802 -2.28596306 20.035413742 -0.87315995 -2.6873107 20.035413742
		 2.5262875e-07 -2.82560587 20.035413742 0.87316024 -2.6873107 20.035413742 1.66084921 -2.28596282 20.035413742
		 2.28596234 -1.66084945 20.035413742 2.68731046 -0.87316048 20.035413742 2.82560444 -5.052575e-07 20.035413742
		 3.5372793e-08 -1.7556555e-08 29 0.95105726 0 -0.309017 0.80901766 0 -0.58778542 0.58778572 0 -0.8090173
		 0.30901727 0 -0.95105684 1.1920929e-07 0 -1.000000238419 -0.30901703 0 -0.95105678
		 -0.58778536 0 -0.80901712 -0.80901712 0 -0.58778524 -0.95105666 0 -0.30901688 -1.000000119209 0 1.7881393e-07
		 -0.95105666 0 0.30901724 -0.80901706 0 0.58778554 -0.58778524 0 0.8090173 -0.30901694 0 0.95105684
		 8.9406967e-08 0 1.000000238419 0.30901709 0 0.95105678 0.58778536 0 0.80901724 0.80901712 0 0.58778548
		 0.95105666 0 0.30901718 1.000000119209 0 1.7881393e-07 0.95105726 20 -0.309017 0.80901766 20 -0.58778542
		 0.58778572 20 -0.8090173 0.30901727 20 -0.95105684 1.1920929e-07 20 -1.000000238419
		 -0.30901703 20 -0.95105678 -0.58778536 20 -0.80901712 -0.80901712 20 -0.58778524
		 -0.95105666 20 -0.30901688 -1.000000119209 20 1.7881393e-07 -0.95105666 20 0.30901724
		 -0.80901706 20 0.58778554 -0.58778524 20 0.8090173 -0.30901694 20 0.95105684;
	setAttr ".vt[166:193]" 8.9406967e-08 20 1.000000238419 0.30901709 20 0.95105678
		 0.58778536 20 0.80901724 0.80901712 20 0.58778548 0.95105666 20 0.30901718 1.000000119209 20 1.7881393e-07
		 1.1920929e-07 0 1.7881393e-07 2.68731141 20.035413742 -0.87316006 2.28596401 20.035413742 -1.66084933
		 1.66085029 20.035413742 -2.28596306 0.8731606 20.035413742 -2.6873107 3.368383e-07 20.035413742 -2.82560587
		 -0.87316012 20.035413742 -2.6873107 -1.66084921 20.035413742 -2.28596234 -2.28596234 20.035413742 -1.66084802
		 -2.68731046 20.035413742 -0.87315983 -2.82560444 20.035413742 5.052575e-07 -2.68731046 20.035413742 0.87316054
		 -2.2859621 20.035413742 1.66084957 -1.66084802 20.035413742 2.28596306 -0.87315995 20.035413742 2.6873107
		 2.5262875e-07 20.035413742 2.82560587 0.87316024 20.035413742 2.6873107 1.66084921 20.035413742 2.28596282
		 2.28596234 20.035413742 1.66084945 2.68731046 20.035413742 0.87316048 2.82560444 20.035413742 5.052575e-07
		 3.5372793e-08 29 1.7556543e-08;
	setAttr -s 432 ".ed";
	setAttr ".ed[0:165]"  0 1 0 2 3 0 4 5 0 6 7 0 0 2 0 1 3 0 2 4 0 3 5 0 4 6 0
		 5 7 0 6 0 0 7 1 0 8 9 0 9 10 0 10 11 0 11 12 0 12 13 0 13 14 0 14 15 0 15 16 0 16 17 0
		 17 18 0 18 19 0 19 20 0 20 21 0 21 22 0 22 23 0 23 24 0 24 25 0 25 26 0 26 27 0 27 8 0
		 28 29 0 29 30 0 30 31 0 31 32 0 32 33 0 33 34 0 34 35 0 35 36 0 36 37 0 37 38 0 38 39 0
		 39 40 0 40 41 0 41 42 0 42 43 0 43 44 0 44 45 0 45 46 0 46 47 0 47 28 0 8 28 1 9 29 1
		 10 30 1 11 31 1 12 32 1 13 33 1 14 34 1 15 35 1 16 36 1 17 37 1 18 38 1 19 39 1 20 40 1
		 21 41 1 22 42 1 23 43 1 24 44 1 25 45 1 26 46 1 27 47 1 48 8 1 48 9 1 48 10 1 48 11 1
		 48 12 1 48 13 1 48 14 1 48 15 1 48 16 1 48 17 1 48 18 1 48 19 1 48 20 1 48 21 1 48 22 1
		 48 23 1 48 24 1 48 25 1 48 26 1 48 27 1 28 49 1 29 50 1 49 50 0 30 51 1 50 51 0 31 52 1
		 51 52 0 32 53 1 52 53 0 33 54 1 53 54 0 34 55 1 54 55 0 35 56 1 55 56 0 36 57 1 56 57 0
		 37 58 1 57 58 0 38 59 1 58 59 0 39 60 1 59 60 0 40 61 1 60 61 0 41 62 1 61 62 0 42 63 1
		 62 63 0 43 64 1 63 64 0 44 65 1 64 65 0 45 66 1 65 66 0 46 67 1 66 67 0 47 68 1 67 68 0
		 68 49 0 49 69 1 50 69 1 51 69 1 52 69 1 53 69 1 54 69 1 55 69 1 56 69 1 57 69 1 58 69 1
		 59 69 1 60 69 1 61 69 1 62 69 1 63 69 1 64 69 1 65 69 1 66 69 1 67 69 1 68 69 1 70 71 0
		 71 72 0 72 73 0 73 74 0 74 75 0 75 76 0 76 77 0 77 78 0 78 79 0 79 80 0 80 81 0 81 82 0
		 82 83 0 83 84 0;
	setAttr ".ed[166:331]" 84 85 0 85 86 0 86 87 0 87 88 0 88 89 0 89 70 0 90 91 0
		 91 92 0 92 93 0 93 94 0 94 95 0 95 96 0 96 97 0 97 98 0 98 99 0 99 100 0 100 101 0
		 101 102 0 102 103 0 103 104 0 104 105 0 105 106 0 106 107 0 107 108 0 108 109 0 109 90 0
		 70 90 1 71 91 1 72 92 1 73 93 1 74 94 1 75 95 1 76 96 1 77 97 1 78 98 1 79 99 1 80 100 1
		 81 101 1 82 102 1 83 103 1 84 104 1 85 105 1 86 106 1 87 107 1 88 108 1 89 109 1
		 110 70 1 110 71 1 110 72 1 110 73 1 110 74 1 110 75 1 110 76 1 110 77 1 110 78 1
		 110 79 1 110 80 1 110 81 1 110 82 1 110 83 1 110 84 1 110 85 1 110 86 1 110 87 1
		 110 88 1 110 89 1 90 111 1 91 112 1 111 112 0 92 113 1 112 113 0 93 114 1 113 114 0
		 94 115 1 114 115 0 95 116 1 115 116 0 96 117 1 116 117 0 97 118 1 117 118 0 98 119 1
		 118 119 0 99 120 1 119 120 0 100 121 1 120 121 0 101 122 1 121 122 0 102 123 1 122 123 0
		 103 124 1 123 124 0 104 125 1 124 125 0 105 126 1 125 126 0 106 127 1 126 127 0 107 128 1
		 127 128 0 108 129 1 128 129 0 109 130 1 129 130 0 130 111 0 111 131 1 112 131 1 113 131 1
		 114 131 1 115 131 1 116 131 1 117 131 1 118 131 1 119 131 1 120 131 1 121 131 1 122 131 1
		 123 131 1 124 131 1 125 131 1 126 131 1 127 131 1 128 131 1 129 131 1 130 131 1 132 133 0
		 133 134 0 134 135 0 135 136 0 136 137 0 137 138 0 138 139 0 139 140 0 140 141 0 141 142 0
		 142 143 0 143 144 0 144 145 0 145 146 0 146 147 0 147 148 0 148 149 0 149 150 0 150 151 0
		 151 132 0 152 153 0 153 154 0 154 155 0 155 156 0 156 157 0 157 158 0 158 159 0 159 160 0
		 160 161 0 161 162 0 162 163 0 163 164 0 164 165 0 165 166 0 166 167 0 167 168 0 168 169 0
		 169 170 0 170 171 0 171 152 0;
	setAttr ".ed[332:431]" 132 152 1 133 153 1 134 154 1 135 155 1 136 156 1 137 157 1
		 138 158 1 139 159 1 140 160 1 141 161 1 142 162 1 143 163 1 144 164 1 145 165 1 146 166 1
		 147 167 1 148 168 1 149 169 1 150 170 1 151 171 1 172 132 1 172 133 1 172 134 1 172 135 1
		 172 136 1 172 137 1 172 138 1 172 139 1 172 140 1 172 141 1 172 142 1 172 143 1 172 144 1
		 172 145 1 172 146 1 172 147 1 172 148 1 172 149 1 172 150 1 172 151 1 152 173 1 153 174 1
		 173 174 0 154 175 1 174 175 0 155 176 1 175 176 0 156 177 1 176 177 0 157 178 1 177 178 0
		 158 179 1 178 179 0 159 180 1 179 180 0 160 181 1 180 181 0 161 182 1 181 182 0 162 183 1
		 182 183 0 163 184 1 183 184 0 164 185 1 184 185 0 165 186 1 185 186 0 166 187 1 186 187 0
		 167 188 1 187 188 0 168 189 1 188 189 0 169 190 1 189 190 0 170 191 1 190 191 0 171 192 1
		 191 192 0 192 173 0 173 193 1 174 193 1 175 193 1 176 193 1 177 193 1 178 193 1 179 193 1
		 180 193 1 181 193 1 182 193 1 183 193 1 184 193 1 185 193 1 186 193 1 187 193 1 188 193 1
		 189 193 1 190 193 1 191 193 1 192 193 1;
	setAttr -s 246 -ch 864 ".fc[0:245]" -type "polyFaces" 
		f 4 0 5 -2 -5
		mu 0 4 0 1 3 2
		f 4 1 7 -3 -7
		mu 0 4 2 3 5 4
		f 4 2 9 -4 -9
		mu 0 4 4 5 7 6
		f 4 3 11 -1 -11
		mu 0 4 6 7 9 8
		f 4 -12 -10 -8 -6
		mu 0 4 1 10 11 3
		f 4 10 4 6 8
		mu 0 4 12 0 2 13
		f 4 12 53 -33 -53
		mu 0 4 14 15 16 17
		f 4 13 54 -34 -54
		mu 0 4 15 18 19 16
		f 4 14 55 -35 -55
		mu 0 4 18 20 21 19
		f 4 15 56 -36 -56
		mu 0 4 20 22 23 21
		f 4 16 57 -37 -57
		mu 0 4 22 24 25 23
		f 4 17 58 -38 -58
		mu 0 4 24 26 27 25
		f 4 18 59 -39 -59
		mu 0 4 26 28 29 27
		f 4 19 60 -40 -60
		mu 0 4 28 30 31 29
		f 4 20 61 -41 -61
		mu 0 4 30 32 33 31
		f 4 21 62 -42 -62
		mu 0 4 32 34 35 33
		f 4 22 63 -43 -63
		mu 0 4 34 36 37 35
		f 4 23 64 -44 -64
		mu 0 4 36 38 39 37
		f 4 24 65 -45 -65
		mu 0 4 38 40 41 39
		f 4 25 66 -46 -66
		mu 0 4 40 42 43 41
		f 4 26 67 -47 -67
		mu 0 4 42 44 45 43
		f 4 27 68 -48 -68
		mu 0 4 44 46 47 45
		f 4 28 69 -49 -69
		mu 0 4 46 48 49 47
		f 4 29 70 -50 -70
		mu 0 4 48 50 51 49
		f 4 30 71 -51 -71
		mu 0 4 50 52 53 51
		f 4 31 52 -52 -72
		mu 0 4 52 54 55 53
		f 3 -13 -73 73
		mu 0 3 56 57 58
		f 3 -14 -74 74
		mu 0 3 59 56 58
		f 3 -15 -75 75
		mu 0 3 60 59 58
		f 3 -16 -76 76
		mu 0 3 61 60 58
		f 3 -17 -77 77
		mu 0 3 62 61 58
		f 3 -18 -78 78
		mu 0 3 63 62 58
		f 3 -19 -79 79
		mu 0 3 64 63 58
		f 3 -20 -80 80
		mu 0 3 65 64 58
		f 3 -21 -81 81
		mu 0 3 66 65 58
		f 3 -22 -82 82
		mu 0 3 67 66 58
		f 3 -23 -83 83
		mu 0 3 68 67 58
		f 3 -24 -84 84
		mu 0 3 69 68 58
		f 3 -25 -85 85
		mu 0 3 70 69 58
		f 3 -26 -86 86
		mu 0 3 71 70 58
		f 3 -27 -87 87
		mu 0 3 72 71 58
		f 3 -28 -88 88
		mu 0 3 73 72 58
		f 3 -29 -89 89
		mu 0 3 74 73 58
		f 3 -30 -90 90
		mu 0 3 75 74 58
		f 3 -31 -91 91
		mu 0 3 76 75 58
		f 3 -32 -92 72
		mu 0 3 57 76 58
		f 4 32 93 -95 -93
		mu 0 4 77 78 79 80
		f 4 33 95 -97 -94
		mu 0 4 78 81 82 79
		f 4 34 97 -99 -96
		mu 0 4 81 83 84 82
		f 4 35 99 -101 -98
		mu 0 4 83 85 86 84
		f 4 36 101 -103 -100
		mu 0 4 85 87 88 86
		f 4 37 103 -105 -102
		mu 0 4 87 89 90 88
		f 4 38 105 -107 -104
		mu 0 4 89 91 92 90
		f 4 39 107 -109 -106
		mu 0 4 91 93 94 92
		f 4 40 109 -111 -108
		mu 0 4 93 95 96 94
		f 4 41 111 -113 -110
		mu 0 4 95 97 98 96
		f 4 42 113 -115 -112
		mu 0 4 97 99 100 98
		f 4 43 115 -117 -114
		mu 0 4 99 101 102 100
		f 4 44 117 -119 -116
		mu 0 4 101 103 104 102
		f 4 45 119 -121 -118
		mu 0 4 103 105 106 104
		f 4 46 121 -123 -120
		mu 0 4 105 107 108 106
		f 4 47 123 -125 -122
		mu 0 4 107 109 110 108
		f 4 48 125 -127 -124
		mu 0 4 109 111 112 110
		f 4 49 127 -129 -126
		mu 0 4 111 113 114 112
		f 4 50 129 -131 -128
		mu 0 4 113 115 116 114
		f 4 51 92 -132 -130
		mu 0 4 115 77 80 116
		f 3 94 133 -133
		mu 0 3 80 79 117
		f 3 96 134 -134
		mu 0 3 79 82 117
		f 3 98 135 -135
		mu 0 3 82 84 117
		f 3 100 136 -136
		mu 0 3 84 86 117
		f 3 102 137 -137
		mu 0 3 86 88 117
		f 3 104 138 -138
		mu 0 3 88 90 117
		f 3 106 139 -139
		mu 0 3 90 92 117
		f 3 108 140 -140
		mu 0 3 92 94 117
		f 3 110 141 -141
		mu 0 3 94 96 117
		f 3 112 142 -142
		mu 0 3 96 98 117
		f 3 114 143 -143
		mu 0 3 98 100 117
		f 3 116 144 -144
		mu 0 3 100 102 117
		f 3 118 145 -145
		mu 0 3 102 104 117
		f 3 120 146 -146
		mu 0 3 104 106 117
		f 3 122 147 -147
		mu 0 3 106 108 117
		f 3 124 148 -148
		mu 0 3 108 110 117
		f 3 126 149 -149
		mu 0 3 110 112 117
		f 3 128 150 -150
		mu 0 3 112 114 117
		f 3 130 151 -151
		mu 0 3 114 116 117
		f 3 131 132 -152
		mu 0 3 116 80 117
		f 4 152 193 -173 -193
		mu 0 4 118 119 120 121
		f 4 153 194 -174 -194
		mu 0 4 119 122 123 120
		f 4 154 195 -175 -195
		mu 0 4 122 124 125 123
		f 4 155 196 -176 -196
		mu 0 4 124 126 127 125
		f 4 156 197 -177 -197
		mu 0 4 126 128 129 127
		f 4 157 198 -178 -198
		mu 0 4 128 130 131 129
		f 4 158 199 -179 -199
		mu 0 4 130 132 133 131
		f 4 159 200 -180 -200
		mu 0 4 132 134 135 133
		f 4 160 201 -181 -201
		mu 0 4 134 136 137 135
		f 4 161 202 -182 -202
		mu 0 4 136 138 139 137
		f 4 162 203 -183 -203
		mu 0 4 138 140 141 139
		f 4 163 204 -184 -204
		mu 0 4 140 142 143 141
		f 4 164 205 -185 -205
		mu 0 4 142 144 145 143
		f 4 165 206 -186 -206
		mu 0 4 144 146 147 145
		f 4 166 207 -187 -207
		mu 0 4 146 148 149 147
		f 4 167 208 -188 -208
		mu 0 4 148 150 151 149
		f 4 168 209 -189 -209
		mu 0 4 150 152 153 151
		f 4 169 210 -190 -210
		mu 0 4 152 154 155 153
		f 4 170 211 -191 -211
		mu 0 4 154 156 157 155
		f 4 171 192 -192 -212
		mu 0 4 156 158 159 157
		f 3 -153 -213 213
		mu 0 3 160 161 162
		f 3 -154 -214 214
		mu 0 3 163 160 162
		f 3 -155 -215 215
		mu 0 3 164 163 162
		f 3 -156 -216 216
		mu 0 3 165 164 162
		f 3 -157 -217 217
		mu 0 3 166 165 162
		f 3 -158 -218 218
		mu 0 3 167 166 162
		f 3 -159 -219 219
		mu 0 3 168 167 162
		f 3 -160 -220 220
		mu 0 3 169 168 162
		f 3 -161 -221 221
		mu 0 3 170 169 162
		f 3 -162 -222 222
		mu 0 3 171 170 162
		f 3 -163 -223 223
		mu 0 3 172 171 162
		f 3 -164 -224 224
		mu 0 3 173 172 162
		f 3 -165 -225 225
		mu 0 3 174 173 162
		f 3 -166 -226 226
		mu 0 3 175 174 162
		f 3 -167 -227 227
		mu 0 3 176 175 162
		f 3 -168 -228 228
		mu 0 3 177 176 162
		f 3 -169 -229 229
		mu 0 3 178 177 162
		f 3 -170 -230 230
		mu 0 3 179 178 162
		f 3 -171 -231 231
		mu 0 3 180 179 162
		f 3 -172 -232 212
		mu 0 3 161 180 162
		f 4 172 233 -235 -233
		mu 0 4 181 182 183 184
		f 4 173 235 -237 -234
		mu 0 4 182 185 186 183
		f 4 174 237 -239 -236
		mu 0 4 185 187 188 186
		f 4 175 239 -241 -238
		mu 0 4 187 189 190 188
		f 4 176 241 -243 -240
		mu 0 4 189 191 192 190
		f 4 177 243 -245 -242
		mu 0 4 191 193 194 192
		f 4 178 245 -247 -244
		mu 0 4 193 195 196 194
		f 4 179 247 -249 -246
		mu 0 4 195 197 198 196
		f 4 180 249 -251 -248
		mu 0 4 197 199 200 198
		f 4 181 251 -253 -250
		mu 0 4 199 201 202 200
		f 4 182 253 -255 -252
		mu 0 4 201 203 204 202
		f 4 183 255 -257 -254
		mu 0 4 203 205 206 204
		f 4 184 257 -259 -256
		mu 0 4 205 207 208 206
		f 4 185 259 -261 -258
		mu 0 4 207 209 210 208
		f 4 186 261 -263 -260
		mu 0 4 209 211 212 210
		f 4 187 263 -265 -262
		mu 0 4 211 213 214 212
		f 4 188 265 -267 -264
		mu 0 4 213 215 216 214
		f 4 189 267 -269 -266
		mu 0 4 215 217 218 216
		f 4 190 269 -271 -268
		mu 0 4 217 219 220 218
		f 4 191 232 -272 -270
		mu 0 4 219 181 184 220
		f 3 234 273 -273
		mu 0 3 184 183 221
		f 3 236 274 -274
		mu 0 3 183 186 221
		f 3 238 275 -275
		mu 0 3 186 188 221
		f 3 240 276 -276
		mu 0 3 188 190 221
		f 3 242 277 -277
		mu 0 3 190 192 221
		f 3 244 278 -278
		mu 0 3 192 194 221
		f 3 246 279 -279
		mu 0 3 194 196 221
		f 3 248 280 -280
		mu 0 3 196 198 221
		f 3 250 281 -281
		mu 0 3 198 200 221
		f 3 252 282 -282
		mu 0 3 200 202 221
		f 3 254 283 -283
		mu 0 3 202 204 221
		f 3 256 284 -284
		mu 0 3 204 206 221
		f 3 258 285 -285
		mu 0 3 206 208 221
		f 3 260 286 -286
		mu 0 3 208 210 221
		f 3 262 287 -287
		mu 0 3 210 212 221
		f 3 264 288 -288
		mu 0 3 212 214 221
		f 3 266 289 -289
		mu 0 3 214 216 221
		f 3 268 290 -290
		mu 0 3 216 218 221
		f 3 270 291 -291
		mu 0 3 218 220 221
		f 3 271 272 -292
		mu 0 3 220 184 221
		f 4 292 333 -313 -333
		mu 0 4 222 223 224 225
		f 4 293 334 -314 -334
		mu 0 4 223 226 227 224
		f 4 294 335 -315 -335
		mu 0 4 226 228 229 227
		f 4 295 336 -316 -336
		mu 0 4 228 230 231 229
		f 4 296 337 -317 -337
		mu 0 4 230 232 233 231
		f 4 297 338 -318 -338
		mu 0 4 232 234 235 233
		f 4 298 339 -319 -339
		mu 0 4 234 236 237 235
		f 4 299 340 -320 -340
		mu 0 4 236 238 239 237
		f 4 300 341 -321 -341
		mu 0 4 238 240 241 239
		f 4 301 342 -322 -342
		mu 0 4 240 242 243 241
		f 4 302 343 -323 -343
		mu 0 4 242 244 245 243
		f 4 303 344 -324 -344
		mu 0 4 244 246 247 245
		f 4 304 345 -325 -345
		mu 0 4 246 248 249 247
		f 4 305 346 -326 -346
		mu 0 4 248 250 251 249
		f 4 306 347 -327 -347
		mu 0 4 250 252 253 251
		f 4 307 348 -328 -348
		mu 0 4 252 254 255 253
		f 4 308 349 -329 -349
		mu 0 4 254 256 257 255
		f 4 309 350 -330 -350
		mu 0 4 256 258 259 257
		f 4 310 351 -331 -351
		mu 0 4 258 260 261 259
		f 4 311 332 -332 -352
		mu 0 4 260 262 263 261
		f 3 -293 -353 353
		mu 0 3 264 265 266
		f 3 -294 -354 354
		mu 0 3 267 264 266
		f 3 -295 -355 355
		mu 0 3 268 267 266
		f 3 -296 -356 356
		mu 0 3 269 268 266
		f 3 -297 -357 357
		mu 0 3 270 269 266
		f 3 -298 -358 358
		mu 0 3 271 270 266
		f 3 -299 -359 359
		mu 0 3 272 271 266
		f 3 -300 -360 360
		mu 0 3 273 272 266
		f 3 -301 -361 361
		mu 0 3 274 273 266
		f 3 -302 -362 362
		mu 0 3 275 274 266
		f 3 -303 -363 363
		mu 0 3 276 275 266
		f 3 -304 -364 364
		mu 0 3 277 276 266
		f 3 -305 -365 365
		mu 0 3 278 277 266
		f 3 -306 -366 366
		mu 0 3 279 278 266
		f 3 -307 -367 367
		mu 0 3 280 279 266
		f 3 -308 -368 368
		mu 0 3 281 280 266
		f 3 -309 -369 369
		mu 0 3 282 281 266
		f 3 -310 -370 370
		mu 0 3 283 282 266
		f 3 -311 -371 371
		mu 0 3 284 283 266
		f 3 -312 -372 352
		mu 0 3 265 284 266
		f 4 312 373 -375 -373
		mu 0 4 285 286 287 288
		f 4 313 375 -377 -374
		mu 0 4 286 289 290 287
		f 4 314 377 -379 -376
		mu 0 4 289 291 292 290
		f 4 315 379 -381 -378
		mu 0 4 291 293 294 292
		f 4 316 381 -383 -380
		mu 0 4 293 295 296 294
		f 4 317 383 -385 -382
		mu 0 4 295 297 298 296
		f 4 318 385 -387 -384
		mu 0 4 297 299 300 298
		f 4 319 387 -389 -386
		mu 0 4 299 301 302 300
		f 4 320 389 -391 -388
		mu 0 4 301 303 304 302
		f 4 321 391 -393 -390
		mu 0 4 303 305 306 304
		f 4 322 393 -395 -392
		mu 0 4 305 307 308 306
		f 4 323 395 -397 -394
		mu 0 4 307 309 310 308
		f 4 324 397 -399 -396
		mu 0 4 309 311 312 310
		f 4 325 399 -401 -398
		mu 0 4 311 313 314 312
		f 4 326 401 -403 -400
		mu 0 4 313 315 316 314
		f 4 327 403 -405 -402
		mu 0 4 315 317 318 316
		f 4 328 405 -407 -404
		mu 0 4 317 319 320 318
		f 4 329 407 -409 -406
		mu 0 4 319 321 322 320
		f 4 330 409 -411 -408
		mu 0 4 321 323 324 322
		f 4 331 372 -412 -410
		mu 0 4 323 285 288 324
		f 3 374 413 -413
		mu 0 3 288 287 325
		f 3 376 414 -414
		mu 0 3 287 290 325
		f 3 378 415 -415
		mu 0 3 290 292 325
		f 3 380 416 -416
		mu 0 3 292 294 325
		f 3 382 417 -417
		mu 0 3 294 296 325
		f 3 384 418 -418
		mu 0 3 296 298 325
		f 3 386 419 -419
		mu 0 3 298 300 325
		f 3 388 420 -420
		mu 0 3 300 302 325
		f 3 390 421 -421
		mu 0 3 302 304 325
		f 3 392 422 -422
		mu 0 3 304 306 325
		f 3 394 423 -423
		mu 0 3 306 308 325
		f 3 396 424 -424
		mu 0 3 308 310 325
		f 3 398 425 -425
		mu 0 3 310 312 325
		f 3 400 426 -426
		mu 0 3 312 314 325
		f 3 402 427 -427
		mu 0 3 314 316 325
		f 3 404 428 -428
		mu 0 3 316 318 325
		f 3 406 429 -429
		mu 0 3 318 320 325
		f 3 408 430 -430
		mu 0 3 320 322 325
		f 3 410 431 -431
		mu 0 3 322 324 325
		f 3 411 412 -432
		mu 0 3 324 288 325;
	setAttr ".cd" -type "dataPolyComponent" Index_Data Edge 0 ;
	setAttr ".cvd" -type "dataPolyComponent" Index_Data Vertex 0 ;
	setAttr ".pd[0]" -type "dataPolyComponent" Index_Data UV 0 ;
	setAttr ".hfd" -type "dataPolyComponent" Index_Data Face 0 ;
createNode lightLinker -s -n "lightLinker1";
	rename -uid "21D4F91D-44BA-C4D0-2B63-51B9E97BDFC0";
	setAttr -s 5 ".lnk";
	setAttr -s 5 ".slnk";
createNode shapeEditorManager -n "shapeEditorManager";
	rename -uid "8A080F59-4E0B-1B52-1EDD-B3930D389168";
createNode poseInterpolatorManager -n "poseInterpolatorManager";
	rename -uid "7567A540-4CF8-F22E-49C4-8FA791461393";
createNode displayLayerManager -n "layerManager";
	rename -uid "9F3A59A7-415A-9798-585D-C696CD06F445";
createNode displayLayer -n "defaultLayer";
	rename -uid "8F8CBE11-4F7B-A4A3-EC59-99A1B0DB7440";
createNode renderLayerManager -n "renderLayerManager";
	rename -uid "5A3C8A59-4C7A-12F8-14C2-398F4A2E58A6";
createNode renderLayer -n "defaultRenderLayer";
	rename -uid "8D939359-4527-66FA-7AAE-31A181835C8C";
	setAttr ".g" yes;
createNode lambert -n "green_lambert";
	rename -uid "C4F8C28F-46E3-57A1-5146-C79C650B7AA2";
	setAttr ".dc" 1;
	setAttr ".c" -type "float3" 0 1 0 ;
	setAttr ".tc" 1;
createNode shadingEngine -n "lambert2SG";
	rename -uid "D8055878-4D18-E886-04AA-EF89C35AE1D1";
	setAttr ".ihi" 0;
	setAttr ".ro" yes;
createNode materialInfo -n "materialInfo1";
	rename -uid "43FCC3AD-4D14-34D0-DB45-4C96EFE2E0D3";
createNode lambert -n "blue_lambert";
	rename -uid "EBDD541B-4C25-E2BD-0A57-3689F159DC67";
	setAttr ".c" -type "float3" 0 0 1 ;
	setAttr ".tc" 1;
createNode shadingEngine -n "lambert3SG";
	rename -uid "A149DBDC-4F5F-44B3-CFCF-7F96EF076305";
	setAttr ".ihi" 0;
	setAttr ".ro" yes;
createNode materialInfo -n "materialInfo2";
	rename -uid "222B1CBE-440F-4F8D-BE96-F0AAD49ED032";
createNode lambert -n "red_lambert";
	rename -uid "5BFEEE2A-464E-4CEE-AA48-4B99545C6FF4";
	setAttr ".dc" 1;
	setAttr ".c" -type "float3" 1 0 0 ;
	setAttr ".tc" 1;
createNode shadingEngine -n "redSG";
	rename -uid "1F45CD26-440D-B335-725F-7B80E6825C88";
	setAttr ".ihi" 0;
	setAttr ".ro" yes;
createNode materialInfo -n "materialInfo3";
	rename -uid "EBEBB560-4AE5-A292-66BF-CAAAEA2CDDAA";
createNode script -n "sceneConfigurationScriptNode";
	rename -uid "9B42819E-4A48-027E-54E1-0895000DCC3F";
	setAttr ".b" -type "string" "playbackOptions -min 1 -max 120 -ast 1 -aet 200 ";
	setAttr ".st" 6;
createNode groupId -n "groupId1";
	rename -uid "7FFA37F8-435D-181B-2538-D19D859C58FF";
	setAttr ".ihi" 0;
createNode groupId -n "groupId2";
	rename -uid "77A1B556-4377-9FD0-4FFC-73AC8404A0DC";
	setAttr ".ihi" 0;
createNode groupId -n "groupId3";
	rename -uid "4A70CD13-4CAF-0F94-9FC8-6095F6AC6A86";
	setAttr ".ihi" 0;
select -ne :time1;
	setAttr -av -k on ".cch";
	setAttr -k on ".fzn";
	setAttr -av -cb on ".ihi";
	setAttr -av -k on ".nds";
	setAttr -cb on ".bnm";
	setAttr -k on ".o" 1;
	setAttr -av -k on ".unw" 1;
	setAttr -av -k on ".etw";
	setAttr -av -k on ".tps";
	setAttr -av -k on ".tms";
select -ne :hardwareRenderingGlobals;
	setAttr -av -k on ".ihi";
	setAttr ".otfna" -type "stringArray" 22 "NURBS Curves" "NURBS Surfaces" "Polygons" "Subdiv Surface" "Particles" "Particle Instance" "Fluids" "Strokes" "Image Planes" "UI" "Lights" "Cameras" "Locators" "Joints" "IK Handles" "Deformers" "Motion Trails" "Components" "Hair Systems" "Follicles" "Misc. UI" "Ornaments"  ;
	setAttr ".otfva" -type "Int32Array" 22 0 1 1 1 1 1
		 1 1 1 0 0 0 0 0 0 0 0 0
		 0 0 0 0 ;
	setAttr -k on ".hwi";
	setAttr -av ".ta";
	setAttr -av ".tq";
	setAttr -av ".etmr";
	setAttr -av ".tmr";
	setAttr -av ".aoon";
	setAttr -av ".aoam";
	setAttr -av ".aora";
	setAttr -k on ".hff";
	setAttr -av -k on ".hfd";
	setAttr -av -k on ".hfs";
	setAttr -av -k on ".hfe";
	setAttr -av ".hfc";
	setAttr -av -k on ".hfcr";
	setAttr -av -k on ".hfcg";
	setAttr -av -k on ".hfcb";
	setAttr -av -k on ".hfa";
	setAttr -av ".mbe";
	setAttr -av -k on ".mbsof";
	setAttr -k on ".blen";
	setAttr -k on ".blat";
	setAttr -av ".msaa";
	setAttr ".fprt" yes;
select -ne :renderPartition;
	setAttr -av -k on ".cch";
	setAttr -cb on ".ihi";
	setAttr -av -k on ".nds";
	setAttr -cb on ".bnm";
	setAttr -s 5 ".st";
	setAttr -cb on ".an";
	setAttr -cb on ".pt";
select -ne :renderGlobalsList1;
	setAttr -k on ".cch";
	setAttr -cb on ".ihi";
	setAttr -k on ".nds";
	setAttr -cb on ".bnm";
select -ne :defaultShaderList1;
	setAttr -k on ".cch";
	setAttr -cb on ".ihi";
	setAttr -k on ".nds";
	setAttr -cb on ".bnm";
	setAttr -s 7 ".s";
select -ne :postProcessList1;
	setAttr -k on ".cch";
	setAttr -cb on ".ihi";
	setAttr -k on ".nds";
	setAttr -cb on ".bnm";
	setAttr -s 2 ".p";
select -ne :defaultRenderingList1;
	setAttr -k on ".ihi";
select -ne :initialShadingGroup;
	setAttr -av -k on ".cch";
	setAttr -k on ".fzn";
	setAttr -cb on ".ihi";
	setAttr -av -k on ".nds";
	setAttr -cb on ".bnm";
	setAttr -k on ".bbx";
	setAttr -k on ".vwm";
	setAttr -k on ".tpv";
	setAttr -k on ".uit";
	setAttr -k on ".mwc";
	setAttr -cb on ".an";
	setAttr -cb on ".il";
	setAttr -cb on ".vo";
	setAttr -cb on ".eo";
	setAttr -cb on ".fo";
	setAttr -cb on ".epo";
	setAttr -k on ".ro" yes;
select -ne :initialParticleSE;
	setAttr -av -k on ".cch";
	setAttr -cb on ".ihi";
	setAttr -av -k on ".nds";
	setAttr -cb on ".bnm";
	setAttr -k on ".mwc";
	setAttr -cb on ".an";
	setAttr -cb on ".il";
	setAttr -cb on ".vo";
	setAttr -cb on ".eo";
	setAttr -cb on ".fo";
	setAttr -cb on ".epo";
	setAttr ".ro" yes;
select -ne :defaultRenderGlobals;
	setAttr -av -k on ".cch";
	setAttr -cb on ".ihi";
	setAttr -av -k on ".nds";
	setAttr -cb on ".bnm";
	setAttr -cb on ".macc";
	setAttr -cb on ".macd";
	setAttr -cb on ".macq";
	setAttr -k on ".mcfr";
	setAttr -cb on ".ifg";
	setAttr -k on ".clip";
	setAttr -k on ".edm";
	setAttr -av -k on ".edl";
	setAttr -av -k on ".esr";
	setAttr -k on ".ors";
	setAttr -cb on ".sdf";
	setAttr -av -k on ".outf";
	setAttr -av -cb on ".imfkey";
	setAttr -av -k on ".gama";
	setAttr -av -cb on ".an";
	setAttr -cb on ".ar";
	setAttr -k on ".fs" 1;
	setAttr -k on ".ef" 10;
	setAttr -av -k on ".bfs";
	setAttr -cb on ".me";
	setAttr -cb on ".se";
	setAttr -av -k on ".be";
	setAttr -av -cb on ".ep";
	setAttr -k on ".fec";
	setAttr -av -k on ".ofc";
	setAttr -cb on ".ofe";
	setAttr -cb on ".efe";
	setAttr -cb on ".oft";
	setAttr -cb on ".umfn";
	setAttr -cb on ".ufe";
	setAttr -av -cb on ".pff";
	setAttr -av -cb on ".peie";
	setAttr -av -cb on ".ifp";
	setAttr -k on ".rv";
	setAttr -k on ".comp";
	setAttr -k on ".cth";
	setAttr -k on ".soll";
	setAttr -cb on ".sosl";
	setAttr -k on ".rd";
	setAttr -k on ".lp";
	setAttr -av -k on ".sp";
	setAttr -k on ".shs";
	setAttr -av -k on ".lpr";
	setAttr -cb on ".gv";
	setAttr -cb on ".sv";
	setAttr -k on ".mm";
	setAttr -av -k on ".npu";
	setAttr -k on ".itf";
	setAttr -k on ".shp";
	setAttr -cb on ".isp";
	setAttr -k on ".uf";
	setAttr -k on ".oi";
	setAttr -k on ".rut";
	setAttr -k on ".mot";
	setAttr -av -k on ".mb";
	setAttr -av -k on ".mbf";
	setAttr -k on ".mbso";
	setAttr -k on ".mbsc";
	setAttr -av -k on ".afp";
	setAttr -k on ".pfb";
	setAttr -k on ".pram";
	setAttr -k on ".poam";
	setAttr -k on ".prlm";
	setAttr -k on ".polm";
	setAttr -cb on ".prm";
	setAttr -cb on ".pom";
	setAttr -cb on ".pfrm";
	setAttr -cb on ".pfom";
	setAttr -av -k on ".bll";
	setAttr -av -k on ".bls";
	setAttr -av -k on ".smv";
	setAttr -k on ".ubc";
	setAttr -k on ".mbc";
	setAttr -cb on ".mbt";
	setAttr -k on ".udbx";
	setAttr -k on ".smc";
	setAttr -k on ".kmv";
	setAttr -cb on ".isl";
	setAttr -cb on ".ism";
	setAttr -cb on ".imb";
	setAttr -av -k on ".rlen";
	setAttr -av -k on ".frts";
	setAttr -k on ".tlwd";
	setAttr -k on ".tlht";
	setAttr -k on ".jfc";
	setAttr -cb on ".rsb";
	setAttr -cb on ".ope";
	setAttr -cb on ".oppf";
	setAttr -av -k on ".rcp";
	setAttr -av -k on ".icp";
	setAttr -av -k on ".ocp";
	setAttr -cb on ".hbl";
select -ne :defaultResolution;
	setAttr -av -k on ".cch";
	setAttr -av -k on ".ihi";
	setAttr -av -k on ".nds";
	setAttr -k on ".bnm";
	setAttr -av -k on ".w";
	setAttr -av -k on ".h";
	setAttr -av ".pa" 1;
	setAttr -av -k on ".al";
	setAttr -av -k on ".dar";
	setAttr -av -k on ".ldar";
	setAttr -av -k on ".dpi";
	setAttr -av -k on ".off";
	setAttr -av -k on ".fld";
	setAttr -av -k on ".zsl";
	setAttr -av -k on ".isu";
	setAttr -av -k on ".pdu";
select -ne :hardwareRenderGlobals;
	setAttr -av -k on ".cch";
	setAttr -cb on ".ihi";
	setAttr -av -k on ".nds";
	setAttr -cb on ".bnm";
	setAttr -av ".ctrs" 256;
	setAttr -av ".btrs" 512;
	setAttr -av -k off -cb on ".fbfm";
	setAttr -av -k off -cb on ".ehql";
	setAttr -av -k off -cb on ".eams";
	setAttr -av -k off -cb on ".eeaa";
	setAttr -av -k off -cb on ".engm";
	setAttr -av -k off -cb on ".mes";
	setAttr -av -k off -cb on ".emb";
	setAttr -av -k off -cb on ".mbbf";
	setAttr -av -k off -cb on ".mbs";
	setAttr -av -k off -cb on ".trm";
	setAttr -av -k off -cb on ".tshc";
	setAttr -av -k off -cb on ".enpt";
	setAttr -av -k off -cb on ".clmt";
	setAttr -av -k off -cb on ".tcov";
	setAttr -av -k off -cb on ".lith";
	setAttr -av -k off -cb on ".sobc";
	setAttr -av -k off -cb on ".cuth";
	setAttr -av -k off -cb on ".hgcd";
	setAttr -av -k off -cb on ".hgci";
	setAttr -av -k off -cb on ".mgcs";
	setAttr -av -k off -cb on ".twa";
	setAttr -av -k off -cb on ".twz";
	setAttr -cb on ".hwcc";
	setAttr -cb on ".hwdp";
	setAttr -cb on ".hwql";
	setAttr -k on ".hwfr";
	setAttr -k on ".soll";
	setAttr -k on ".sosl";
	setAttr -k on ".bswa";
	setAttr -k on ".shml";
	setAttr -k on ".hwel";
select -ne :ikSystem;
	setAttr -k on ".cch";
	setAttr -k on ".ihi";
	setAttr -k on ".nds";
	setAttr -k on ".bnm";
	setAttr -av -k on ".gsn";
	setAttr -k on ".gsv";
	setAttr -s 4 ".sol";
connectAttr "groupId1.id" "axisShape.iog.og[0].gid";
connectAttr "redSG.mwc" "axisShape.iog.og[0].gco";
connectAttr "groupId2.id" "axisShape.iog.og[1].gid";
connectAttr "lambert2SG.mwc" "axisShape.iog.og[1].gco";
connectAttr "groupId3.id" "axisShape.iog.og[2].gid";
connectAttr "lambert3SG.mwc" "axisShape.iog.og[2].gco";
relationship "link" ":lightLinker1" ":initialShadingGroup.message" ":defaultLightSet.message";
relationship "link" ":lightLinker1" ":initialParticleSE.message" ":defaultLightSet.message";
relationship "link" ":lightLinker1" "lambert2SG.message" ":defaultLightSet.message";
relationship "link" ":lightLinker1" "lambert3SG.message" ":defaultLightSet.message";
relationship "link" ":lightLinker1" "redSG.message" ":defaultLightSet.message";
relationship "shadowLink" ":lightLinker1" ":initialShadingGroup.message" ":defaultLightSet.message";
relationship "shadowLink" ":lightLinker1" ":initialParticleSE.message" ":defaultLightSet.message";
relationship "shadowLink" ":lightLinker1" "lambert2SG.message" ":defaultLightSet.message";
relationship "shadowLink" ":lightLinker1" "lambert3SG.message" ":defaultLightSet.message";
relationship "shadowLink" ":lightLinker1" "redSG.message" ":defaultLightSet.message";
connectAttr "layerManager.dli[0]" "defaultLayer.id";
connectAttr "renderLayerManager.rlmi[0]" "defaultRenderLayer.rlid";
connectAttr "green_lambert.oc" "lambert2SG.ss";
connectAttr "axisShape.iog.og[1]" "lambert2SG.dsm" -na;
connectAttr "groupId2.msg" "lambert2SG.gn" -na;
connectAttr "lambert2SG.msg" "materialInfo1.sg";
connectAttr "green_lambert.msg" "materialInfo1.m";
connectAttr "blue_lambert.oc" "lambert3SG.ss";
connectAttr "axisShape.iog.og[2]" "lambert3SG.dsm" -na;
connectAttr "groupId3.msg" "lambert3SG.gn" -na;
connectAttr "lambert3SG.msg" "materialInfo2.sg";
connectAttr "blue_lambert.msg" "materialInfo2.m";
connectAttr "red_lambert.oc" "redSG.ss";
connectAttr "axisShape.iog.og[0]" "redSG.dsm" -na;
connectAttr "groupId1.msg" "redSG.gn" -na;
connectAttr "redSG.msg" "materialInfo3.sg";
connectAttr "red_lambert.msg" "materialInfo3.m";
connectAttr "lambert2SG.pa" ":renderPartition.st" -na;
connectAttr "lambert3SG.pa" ":renderPartition.st" -na;
connectAttr "redSG.pa" ":renderPartition.st" -na;
connectAttr "green_lambert.msg" ":defaultShaderList1.s" -na;
connectAttr "blue_lambert.msg" ":defaultShaderList1.s" -na;
connectAttr "red_lambert.msg" ":defaultShaderList1.s" -na;
connectAttr "defaultRenderLayer.msg" ":defaultRenderingList1.r" -na;
// End of guide_axis.ma
